/*!
 * ApexCharts v3.33.0
 * (c) 2018-2022 ApexCharts
 * Released under the MIT License.
 */

/*! svg.draggable.js - v2.2.2 - 2019-01-08
  * https://github.com/svgdotjs/svg.draggable.js
  * Copyright (c) 2019 Wout Fierens; Licensed MIT */

/*! svg.filter.js - v2.0.2 - 2016-02-24
  * https://github.com/wout/svg.filter.js
  * Copyright (c) 2016 Wout Fierens; Licensed MIT */
